{
    "config_format": 2,
    "autoinstall": true,
    "name": "Pantavisor TEZI base installer for Colibri iMX6ULL",
    "description": "Pantavisor TEZI base image is a generic starting point to connec to Pantahub; you can add apps and change firmware afterwwards remotely",
    "version": "0.0.1",
    "release_date": "%RELEASEDATE%",
    "u_boot_env": "uEnv.colibri-imx6ull.txt",
    "prepare_script": "prepare.sh",
    "wrapup_script": "wrapup.sh",
    "marketing": "marketing.tar",
    "icon": "pantacor.png",
    "supported_product_ids": [
	"0044",
	"0040",
	"0045",
	"0036"
    ],
    "mtddevs": [
        {
            "content": {
                "rawfile": {
                    "filename": "u-boot-nand.colibri-imx6ull.imx",
                    "size": 1
                }
            },
            "name": "u-boot1"
        },
        {
            "content": {
                "rawfile": {
                    "filename": "u-boot-nand.colibri-imx6ull.imx",
                    "size": 1
                }
            },
            "name": "u-boot2"
        },
        {
            "ubivolumes": [
                {
                    "size_kib": 1,
                    "content": {
                        "rawfile": {
                            "filename": "zero-1024.raw",
                            "size": 1024
                        }
                    },
                    "name": "pvenv"
                },
                {
                    "size_kib": 16384,
                    "content": {
                        "filesystem_type": "ubifs",
                        "uncompressed_size": %BOOTBASENAME_SIZEM%,
                        "filename": "%BOOTBASENAME%"
                    },
                    "name": "pvboot"
                },
                {
                    "content": {
                        "filesystem_type": "ubifs",
                        "uncompressed_size": %ROOTBASENAME_SIZEM%,
                        "filename": "%ROOTBASENAME%"
                    },
                    "name": "pvroot"
                }
            ],
            "name": "ubi"
        }
    ]
}

